<?xml version="1.0" encoding="iso-8859-1"?>
<!-- Generator: Adobe Illustrator 19.0.0, SVG Export Plug-In . SVG Version: 6.00 Build 0)  -->
<svg version="1.1" id="Capa_1" xmlns="http://www.w3.org/2000/svg" xmlns:xlink="http://www.w3.org/1999/xlink" x="0px" y="0px"
	 viewBox="0 0 487.62 487.62" style="enable-background:new 0 0 487.62 487.62;" xml:space="preserve">
<g>
	<g>		
		<circle style="fill:#CF6F55;" cx="243.81" cy="243.81" r="243.81"/>
		<path style="fill:#C06046;" d="M478.911,308.624l-89.888-88.498l-48.789,0.011l-87.074-68.253l-107.582,69.344l-9.862,61.071
			l193.077,190.094C401.735,445.267,458.1,384.258,478.911,308.624z"/>
		<polygon style="fill:#FFFFFF;" points="98.053,244.956 222.413,368.263 254.59,335.58 184.584,267.215 389.746,265.618 
			389.389,219.754 184.206,221.352 253.16,151.884 220.477,119.706 		"/>
	</g>
</g>
<g>
</g>
<g>
</g>
<g>
</g>
<g>
</g>
<g>
</g>
<g>
</g>
<g>
</g>
<g>
</g>
<g>
</g>
<g>
</g>
<g>
</g>
<g>
</g>
<g>
</g>
<g>
</g>
<g>
</g>
</svg>
